// Jest Snapshot v1, https://goo.gl/fbAQLP

exports[`#getFeaturing should correct featuring for album 1`] = `"Magdalena, Riff Raff, Levi Carter"`;

exports[`#getFeaturing should correct featuring for song 1`] = `"Test Feature, Another feature, third"`;

exports[`#getFeaturing should de-dupe featuring for albums 1`] = `"artist 1, artist 2, another artist, boom, artist 3, artist 4"`;

exports[`#getFeaturing should de-dupe featuring for songs 1`] = `"artist 1, artist2, another artist, boom"`;

exports[`#getFlattendedQueueFromApiItems should flatten API response objects properly 1`] = `
Array [
  Object {
    "accounting_code": "",
    "album": "EDM.com Exclusive",
    "amp": false,
    "artist": "SICKorWELL",
    "buy_link": "",
    "description": "",
    "dominant_color": "6f6e6f",
    "download_url": "https://songs.dev.audiomack.com/albums/the-acid-29/acid-ep/hq-320/626.mp3?Expires=1533353899&Signature=XFGyCREjWQeMx4rZSnyvXZGCfQebEQ8cCAYw9F90emS180kOxJhII2xzP~vd-v2LPMneK9klwdrxZzSA9Gnu3dd6Y-rvqrYtqh957DIgOQa5AuZZFJ7E4K4qCCWo3WZOidh4OywX9CiFVZRy5HrIQi-LQ0XyLCfj0r0is-rnAMA_&Key-Pair-Id=APKAIKAIRXBA2H7FXITA",
    "duration": 6,
    "featuring": "",
    "file320": "/albums/the-acid-29/acid-ep/hq-320/626.mp3",
    "genre": "electronic",
    "id": 257,
    "image": "https://assets.dev.audiomack.com/ponte/cf6c633a69074b1b30cc1fad2b93824a-275-275.jpeg",
    "image_base": undefined,
    "image_processing": "",
    "images": Array [],
    "is_soundcloud": false,
    "links": Object {
      "self": "https://devcf.aws.audiomack.com/song/ponte/ugly-on-the-inside",
    },
    "live": true,
    "parentDetails": Object {
      "artist": Object {
        "id": 49,
        "image": "https://assets.dev.audiomack.com/glen-scott/0cb25472d99008357336a185f24c1f29-275-275.jpeg",
        "image_base": undefined,
        "name": "Glen Scott",
        "url_slug": "glen-scott",
      },
      "id": 111,
      "title": "Fire",
      "type": "playlist",
      "url_slug": "fire-2",
    },
    "private": "no",
    "producer": "Nicholas Joyce aka SICKorWELL",
    "released": 1400097362,
    "released_offset": -133242137,
    "status": "complete",
    "stream_only": "no",
    "streaming_url": "https://songs.dev.audiomack.com/albums/the-acid-29/acid-ep/streaming/626.mp3?Expires=1533353899&Signature=EO1JzaShe-5SDPCrfTPY2exljovIr7rrACzp0~~4ty4Y9Re~jLtyWInmK~vVAD1fJobf7ky7JT8u~ngvIzedqCCFLFHQlGkPB6PSmO28F99ojnFJH6MwTz4g~W2RSy-xGqWY4IfZ2ByjP4gL1jNxz18LmXGUcCBaj1TBMW3ugJg_&Key-Pair-Id=APKAIKAIRXBA2H7FXITA",
    "streaming_url_timeout": 1533343099,
    "time_ago": "4 years ago",
    "title": "Ugly On The Inside",
    "trackIndex": 0,
    "type": "song",
    "ui_color": "6f6e6f",
    "updated": 1531138564,
    "uploaded": 1400097295,
    "uploader": Object {
      "bio": "I built this city on Hip and Hop. Fuck and YES",
      "can_upload": true,
      "created": 1356991086,
      "facebook": "http://facebook.com/audiomack",
      "followers_count": 11,
      "following_count": 2,
      "genre": "rap",
      "hometown": "NYC",
      "id": 3,
      "image": "https://assets.dev.audiomack.com/ponte/ff6b7a8d750e102cf80872cc6c65c157-275-275.jpeg",
      "image_banner": "",
      "image_processing": "",
      "instagram": "audiomack",
      "label": "AudioMack",
      "label_owner": false,
      "name": "Ponte",
      "twitter": "dcponte",
      "type": "artist",
      "updated": 1429116613,
      "url": "http://www.audiomack.com",
      "url_slug": "ponte",
      "verified": "yes",
    },
    "url_slug": "ugly-on-the-inside",
    "video": "",
    "volume_data": "[5,15,21,7,2,0]",
  },
  Object {
    "accounting_code": "",
    "album": "Sae Will We Yet",
    "album_track_only": "",
    "amp": false,
    "artist": "Tony Cuffe",
    "buy_link": "",
    "default_follow": "",
    "description": "",
    "dominant_color": "",
    "download_url": "",
    "duration": 87,
    "featured_text": "",
    "featuring": "",
    "file320": "",
    "follow_download": "",
    "genre": "latin",
    "id": 13896,
    "image": "https://assets.dev.audiomack.com/default-song-image.jpg",
    "image_base": undefined,
    "image_processing": "",
    "images": Array [],
    "is_featured": "",
    "is_soundcloud": false,
    "isrc": "",
    "links": Object {
      "self": "https://devcf.aws.audiomack.com/song/ys234/tail-toddle",
    },
    "live": true,
    "override_buy": "",
    "parentDetails": Object {
      "artist": Object {
        "id": 49,
        "image": "https://assets.dev.audiomack.com/glen-scott/0cb25472d99008357336a185f24c1f29-275-275.jpeg",
        "image_base": undefined,
        "name": "Glen Scott",
        "url_slug": "glen-scott",
      },
      "id": 111,
      "title": "Fire",
      "type": "playlist",
      "url_slug": "fire-2",
    },
    "private": "no",
    "producer": "",
    "released": 1526409009,
    "released_offset": -6930490,
    "soundcloud_follow": "",
    "soundcloud_user": "",
    "soundcloud_user_name": "",
    "status": "complete",
    "stream_only": "yes",
    "streaming_url": "https://songs.dev.audiomack.com/tracks/ys234/tail-toddle.mp3?Expires=1533353899&Signature=clQw3nhIhqMzxIrEGh7uZsVsnPjdVp4j-QMh~RpZ6VxN5GE709c~cTItRF0TJoTlwLbM3JNyOjqcX7nw98ueWAobjR-Ji4kcVWugg8ok-0X3HKjCtohK4BhZyNa-4hfT8b1bzOtH7U71wR~dSTIbjmW5tquiplTcBa0P4DrgFok_&Key-Pair-Id=APKAIKAIRXBA2H7FXITA",
    "streaming_url_timeout": 1533343099,
    "suspension_whitelist": "",
    "time_ago": "2 months ago",
    "title": "Tail Toddle",
    "trackIndex": 1,
    "trend_genres": "",
    "type": "song",
    "ui_color": "",
    "upc": "",
    "updated": 1526328413,
    "uploaded": 1525112992,
    "uploader": Object {
      "bio": "",
      "can_upload": true,
      "created": 1510787773,
      "facebook": "",
      "follow_download": "no",
      "followers_count": 3,
      "following_count": 4,
      "genre": "",
      "hometown": "",
      "id": 828,
      "image": "https://assets.dev.audiomack.com/default-artist-image.jpg",
      "image_banner": "",
      "image_processing": "",
      "instagram": "",
      "label": "",
      "label_owner": false,
      "name": "ys234",
      "status": "active",
      "suspension_whitelist": "",
      "twitter": "",
      "type": "artist",
      "updated": 1510787773,
      "url": "",
      "url_slug": "ys234",
      "verified": "",
      "video_ads": "",
    },
    "url_slug": "tail-toddle",
    "video": "",
    "video_ad": "no",
    "volume_data": "[12,13,14,16,12,14,15,14,15,13,25,36,27,33,29,36,40,30,39,33,34,29,30,32,30,44,40,34,41,39,32,33,30,31,39,40,32,32,33,38,42,34,41,36,35,36,33,28,38,40,40,31,36,36,46,36,37,40,40,35,37,35,38,37,37,32,38,36,44,44,38,41,43,38,39,38,40,41,42,44,37,25,41,29,20,12,2]",
  },
  Object {
    "accounting_code": "song-dont-let-me-down-2012-57",
    "album": "Thissongissick.com",
    "amp": true,
    "amp_duration": 30,
    "artist": "Gramatik",
    "buy_link": "https://geo.itunes.apple.com/us/album/google-me-single/id1033029354?mt=1&app=music",
    "default_follow": "audiomack",
    "description": "",
    "dominant_color": "ffa200",
    "duration": 325,
    "featuring": "Me and you",
    "follow_download": "no",
    "genre": "electronic",
    "id": 57,
    "image": "https://assets.dev.audiomack.com/macli/b0930dfc876c74cfcad23e62c1d46d3f-275-275.jpeg",
    "image_base": undefined,
    "image_processing": "",
    "images": Array [],
    "is_soundcloud": false,
    "isrc": "song-dont-let-me-down-2012-57",
    "links": Object {
      "self": "https://devcf.aws.audiomack.com/song/macli-46/dont-let-me-down-2012",
    },
    "live": true,
    "parentDetails": Object {
      "artist": Object {
        "id": 49,
        "image": "https://assets.dev.audiomack.com/glen-scott/0cb25472d99008357336a185f24c1f29-275-275.jpeg",
        "image_base": undefined,
        "name": "Glen Scott",
        "url_slug": "glen-scott",
      },
      "id": 111,
      "title": "Fire",
      "type": "playlist",
      "url_slug": "fire-2",
    },
    "producer": "",
    "released": 1345655077,
    "released_offset": -187684422,
    "soundcloud_follow": "",
    "status": "complete",
    "stream_only": "yes",
    "streaming_url": "https://songs.dev.audiomack.com/streaming/macli/dont-let-me-down-2012.mp3?Expires=1533353899&Signature=Jly5X-t-~eem98FcdttB7073-paZmHPeVbE1t3FUqtRvsjsqpfv5-qqNHTSaRug~yD8HSC4QdexQlsh4ufwBaTKO3nlxqJmNXcSNgvkVbW7KSDSabVTMKSbEv0dt4Jcy4td-JyHXXTmnv9LWjXcNlilo-ci-5fOcMWv2IlXCJjY_&Key-Pair-Id=APKAIKAIRXBA2H7FXITA",
    "streaming_url_timeout": 1533343099,
    "time_ago": "5 years ago",
    "title": "Don't Let Me Down 2012",
    "trackIndex": 2,
    "type": "song",
    "ui_color": "ffa200",
    "updated": 1521656353,
    "uploaded": 1345655077,
    "uploader": Object {
      "bio": "lo lorumdsa das fasdfaok lorumdsa das fasdfaok lorumdsa das fasdfaok lorumdsa das fasdfaok lorumdsa das fasdfaok lorumdsa das fasdfaok lorumdsa das fasdfaok lorumdsa das fasdfaok lorumdsa das fasdfaasdfa dssdfasdfaasdaf sdf adsf asdf asdf asdf asdf asdf asdf asdf dfasdd ok lorumdsa das fasdfaok lorumdsa das fasdfaok lorumdsa das fasdfaok lorumdsa das fasdfaok lorumdsa das fasdfaok lorumdsa das fasdfaok lorumdsa das fasdfaok lorumdsa das fasdfaok lorumdsa das fasdfaasdfa dssdfasdfaasdaf sdf adsf asdf asdf asdf asdf asdf asdf asdf dfasdd",
      "can_upload": true,
      "created": 1331147520,
      "facebook": "https://facebook.com/Djbooth",
      "follow_download": "",
      "followers_count": 17,
      "following_count": 22,
      "genre": "podcast",
      "hometown": "Brooklyn, NYCkooo",
      "id": 17,
      "image": "https://assets.dev.audiomack.com/macli-46/macli-46-275-275-1509155246.jpg",
      "image_banner": "https://assets.dev.audiomack.com/macli-46/macli-46-1500-500-1532461459.jpg",
      "image_processing": "",
      "instagram": "mariahcarrey",
      "label": "serious label dude",
      "label_manage": false,
      "label_owner": true,
      "name": "Serious, Dude",
      "podcast_category": "Business",
      "suspension_whitelist": "yes",
      "twitter": "Djbooth",
      "type": "artist",
      "updated": 1532461460,
      "url": "http://abc.com",
      "url_slug": "macli-46",
      "verified": "yes",
      "video_ads": "yes",
      "youtube": "https://youtube.com/user/whatever",
    },
    "url_slug": "dont-let-me-down-2012",
    "video": "https://www.youtube.com/watch?v=sPXJKR4-x4Q",
    "video_ad": "yes",
    "volume_data": "[4,13,14,7,8,8,9,10,8,11,10,6,5,7,13,15,7,9,8,11,9,8,11,9,7,7,8,14,29,49,43,54,45,42,57,46,41,55,45,46,58,49,41,55,46,42,54,48,47,56,27,27,44,50,41,54,44,43,48,46,47,58,47,37,29,51,48,56,45,46,56,46,48,54,41,40,55,50,42,54,49,42,55,49,42,57,59,58,43,49,43,53,49,49,57,53,50,63,49,39,50,49,48,54,47,49,49,47,49,53,39,23,47,49,49,54,46,50,51,47,54,55,48,43,59,48,49,49,48,45,56,46,47,53,43,40,50,43,45,39,40,51,49,50,45,41,46,36,43,37,44,47,42,57,48,42,40,43,44,36,59,48,50,44,44,57,54,57,53,52,43,28,42,47,51,44,46,55,54,57,53,48,42,34,46,30,27,32,40,51,45,40,53,48,35,46,37,23,24,28,26,48,51,42,39,49,43,22,49,47,42,56,47,45,60,52,54,59,50,41,53,48,48,58,50,44,60,56,51,61,37,43,57,47,50,57,47,50,56,53,60,58,57,60,61,57,53,61,48,51,61,51,54,62,48,45,59,64,72,63,59,61,66,66,72,68,66,17,52,47,51,53,49,58,56,47,55,62,47,48,58,47,51,52,50,59,59,55,54,47,35,51,59,51,60,54,53,57,57,53,56,60,55,27,59,53,59,55,56,65,57,52,54,41,41,59,43,24,7,1,0,0,0,0,0]",
  },
  Object {
    "accounting_code": "song-10509",
    "album": "Strangers EP",
    "album_track_only": "",
    "amp": true,
    "amp_duration": 30,
    "artist": "Aer",
    "buy_link": "",
    "default_follow": "audiomack",
    "description": "",
    "dominant_color": "8d8889",
    "download_url": "https://songs.dev.audiomack.com/tracks/macli-46/take-it-wrong-2.mp3?Expires=1533353899&Signature=LRNEcBMtrmiGt7gyMC9VWSCRTz0WskMz4w-GWx0JsyNRWtQ7X2cfXqbA4-4Ur36pKwCzBPVnUU~OtyLh3cRG5cPsMGVwbGVTafpexV1jozkan24-GJCe6Mg9COIl0fzXPh91FLF5GVugVA0JqT4qhBWdyD5XH-lRb4gXFpR0qzw_&Key-Pair-Id=APKAIKAIRXBA2H7FXITA",
    "duration": 193,
    "featured_text": "",
    "featuring": "ABC",
    "follow_download": "0",
    "genre": "electronic",
    "id": 10509,
    "image": "https://assets.dev.audiomack.com/macli-46/take-it-wrong-2-275-275.jpg",
    "image_base": undefined,
    "image_processing": "",
    "images": Object {
      "feed": Object {
        "filename": "https://assets.dev.audiomack.com/macli-46/take-it-wrong-2-180-180.jpg",
        "height": 180,
        "width": 180,
      },
      "song": Object {
        "filename": "https://assets.dev.audiomack.com/macli-46/take-it-wrong-2-750-750.jpg",
        "height": 750,
        "width": 750,
      },
    },
    "is_featured": "",
    "is_soundcloud": false,
    "links": Object {
      "self": "https://devcf.aws.audiomack.com/song/macli-46/take-it-wrong-2",
    },
    "live": true,
    "override_buy": "",
    "parentDetails": Object {
      "artist": Object {
        "id": 49,
        "image": "https://assets.dev.audiomack.com/glen-scott/0cb25472d99008357336a185f24c1f29-275-275.jpeg",
        "image_base": undefined,
        "name": "Glen Scott",
        "url_slug": "glen-scott",
      },
      "id": 111,
      "title": "Fire",
      "type": "playlist",
      "url_slug": "fire-2",
    },
    "private": "no",
    "producer": "David von Mering & Carter Schultz",
    "released": 1465306826,
    "released_offset": -68032673,
    "soundcloud_follow": "",
    "status": "complete",
    "stream_only": "no",
    "streaming_url": "https://songs.dev.audiomack.com/streaming/macli-46/take-it-wrong-2.mp3?Expires=1533353899&Signature=TucOv1-~az7qSrHV8HCdwWNMtAMVvQpR0iDLF2Bw1ad5Y3Ub0KZwrm9UFsytnJ1sM~SII4PqL6HqOU-~yJ8Ub7vivbaQ6RjJbJ1o~EnFzrg0woXNNR0iG7pa3KrNHV0dYor-CvViB0AoaC5JWqGgnlI6mmp-ZZXeXTBfqN4ZPSM_&Key-Pair-Id=APKAIKAIRXBA2H7FXITA",
    "streaming_url_timeout": 1533343099,
    "suspension_whitelist": "",
    "time_ago": "2 years ago",
    "title": "This is a really long title that spans 2 lines (Dave Macli Remix)",
    "trackIndex": 3,
    "trend_genres": "",
    "type": "song",
    "ui_color": "8d8889",
    "updated": 1527888009,
    "uploaded": 1465306814,
    "uploader": Object {
      "bio": "lo lorumdsa das fasdfaok lorumdsa das fasdfaok lorumdsa das fasdfaok lorumdsa das fasdfaok lorumdsa das fasdfaok lorumdsa das fasdfaok lorumdsa das fasdfaok lorumdsa das fasdfaok lorumdsa das fasdfaasdfa dssdfasdfaasdaf sdf adsf asdf asdf asdf asdf asdf asdf asdf dfasdd ok lorumdsa das fasdfaok lorumdsa das fasdfaok lorumdsa das fasdfaok lorumdsa das fasdfaok lorumdsa das fasdfaok lorumdsa das fasdfaok lorumdsa das fasdfaok lorumdsa das fasdfaok lorumdsa das fasdfaasdfa dssdfasdfaasdaf sdf adsf asdf asdf asdf asdf asdf asdf asdf dfasdd",
      "can_upload": true,
      "created": 1331147520,
      "facebook": "https://facebook.com/Djbooth",
      "follow_download": "",
      "followers_count": 17,
      "following_count": 22,
      "genre": "podcast",
      "hometown": "Brooklyn, NYCkooo",
      "id": 17,
      "image": "https://assets.dev.audiomack.com/macli-46/macli-46-275-275-1509155246.jpg",
      "image_banner": "https://assets.dev.audiomack.com/macli-46/macli-46-1500-500-1532461459.jpg",
      "image_processing": "",
      "instagram": "mariahcarrey",
      "label": "serious label dude",
      "label_manage": false,
      "label_owner": true,
      "name": "Serious, Dude",
      "podcast_category": "Business",
      "suspension_whitelist": "yes",
      "twitter": "Djbooth",
      "type": "artist",
      "updated": 1532461460,
      "url": "http://abc.com",
      "url_slug": "macli-46",
      "verified": "yes",
      "video_ads": "yes",
      "youtube": "https://youtube.com/user/whatever",
    },
    "url_slug": "take-it-wrong-2",
    "video": "",
    "video_ad": "yes",
    "volume_data": "[23,37,29,25,28,32,30,27,30,30,29,32,36,32,33,30,27,34,31,26,30,36,34,31,19,31,40,39,40,40,40,42,40,44,41,44,41,42,42,39,39,50,43,38,40,45,43,37,36,40,39,43,39,40,42,33,41,47,47,36,37,45,39,42,44,41,33,46,43,44,43,54,52,41,43,46,48,52,44,44,51,51,48,54,47,44,43,45,51,51,40,44,51,59,51,25,28,39,48,43,41,37,40,43,44,46,48,40,42,46,44,43,45,39,43,47,45,49,42,38,42,40,42,42,43,36,36,42,42,44,42,39,42,43,40,36,39,37,43,42,50,46,53,52,42,42,47,49,51,44,44,51,51,48,54,47,44,43,46,50,51,40,43,50,59,51,37,33,32,36,36,38,29,32,35,38,39,35,23,27,25,24,24,24,15,16,14,12,7,1,0,0,0]",
  },
  Object {
    "accounting_code": "",
    "album": "",
    "album_track_only": "",
    "amp": false,
    "artist": "Glen Scott",
    "buy_link": "",
    "default_follow": "",
    "description": "",
    "dominant_color": "",
    "download_url": "https://songs.dev.audiomack.com/hq-320/glen-scott/will-hem4a.mp3?Expires=1533353899&Signature=QHLBq22Y60PM-g8l0XhBN6gITghKJI~AK9CHlzs7x7RrQPVoY3znDPOUdd37JDaqDvoLvC~9RQXwo7kiygqSrH-znd6OHUAOETVs~4Bc15JXXdL1mpZuFE5~E~NtfTPpWFZ2W54vCsH~SkIN3ODXAzAMPsoBkVWElhzS-l73jSE_&Key-Pair-Id=APKAIKAIRXBA2H7FXITA",
    "duration": 202,
    "featured_text": "",
    "featuring": "Test Feature, Another feature, third",
    "file320": "/hq-320/glen-scott/will-hem4a.mp3",
    "follow_download": "",
    "genre": "rap",
    "id": 12978,
    "image": "https://assets.dev.audiomack.com/glen-scott/0cb25472d99008357336a185f24c1f29-275-275.jpeg",
    "image_processing": "",
    "images": Array [],
    "is_featured": "",
    "is_soundcloud": false,
    "isrc": "",
    "links": Object {
      "self": "https://devcf.aws.audiomack.com/song/glen-scott/will-hem4a",
    },
    "live": true,
    "override_buy": "",
    "private": "no",
    "producer": "",
    "released": 1509534584,
    "released_offset": -23804915,
    "soundcloud_follow": "",
    "soundcloud_user": "",
    "soundcloud_user_name": "",
    "stats": Object {
      "downloads": 1,
      "downloads-raw": 1,
      "embedviews": 1,
      "favorites": 1,
      "favorites-raw": 1,
      "pageviews": 0,
      "playlists": 0,
      "playlists-raw": 0,
      "plays": 4,
      "plays-raw": 4,
      "reposts": 1,
      "reposts-raw": 1,
      "track_dls": 0,
    },
    "status": "complete",
    "stream_only": "no",
    "streaming_url": "https://songs.dev.audiomack.com/streaming/glen-scott/will-hem4a.mp3?Expires=1533353899&Signature=Rj7XXZTKvX3~KWTlRzNxp39OPVBFsVZ9jSeCvogOMOBTesDZZvSHm3cuIaQQP1BITcWH7CgWnIewjLS-bUL7r6IL2E47gfXVmvDuScNmBqvxhZLAdLMIa84MmZclurEx-3kraxqqGt53FdWA7LNzPZxf9VI0J4z8KG9RvVZ6Qrg_&Key-Pair-Id=APKAIKAIRXBA2H7FXITA",
    "streaming_url_timeout": 1533343099,
    "suspension_whitelist": "",
    "time_ago": "8 months ago",
    "title": "will-he.m4a",
    "trend_genres": "",
    "type": "song",
    "ui_color": "",
    "upc": "",
    "updated": 1509534600,
    "uploaded": 1509534579,
    "uploader": Object {
      "bio": "Lorem ipsum dolor sit amet, consectetur adipiscing elit. Aliquam ut suscipit lacus. Integer vehicula vehicula leo vitae tristique. Morbi suscipit sapien tortor, in posuere purus vehicula vel. Vivamus blandit purus massa, non gravida dolor luctus non. In vehicula posuere imperdiet. Proin suscipit, metus vitae consectetur porta, leo lacus lacinia risus, sit amet semper tellus diam a eros. Aliquam sit amet consequat lectus, at condimentum sapien. Pellentesque varius, erat eu venenatis posuere, sapien erat malesuada neque, et euismod enim lacus sed augue. Pellentesque habitant morbi tristique senectus et netus et malesuada fames ac turpis egestas. Duis consectetur urna sed viverra consequat. Duis eu sapien et dolor mattis tempus. Vivamus sit amet metus non risus eleifend venenatis. Lorem amet.",
      "can_upload": true,
      "created": 1389814102,
      "facebook": "",
      "followers_count": 17,
      "following_count": 6,
      "genre": "rap",
      "hometown": "Norwich",
      "id": 49,
      "image": "https://assets.dev.audiomack.com/glen-scott/0cb25472d99008357336a185f24c1f29-275-275.jpeg",
      "image_banner": "",
      "image_processing": "",
      "instagram": "glenscott",
      "label": "My label edited blocker",
      "label_owner": false,
      "name": "Glen Scott",
      "twitter": "glenscott",
      "type": "artist",
      "updated": 1520245921,
      "url": "",
      "url_slug": "glen-scott",
      "verified": "yes",
      "video_ads": "1",
    },
    "url_slug": "will-hem4a",
    "video": "",
    "video_ad": "no",
    "volume_data": "[0,0,0,1,4,4,7,5,8,7,5,5,4,8,4,5,8,5,10,12,26,19,16,24,21,15,9,16,19,22,11,25,21,20,8,21,17,27,23,30,31,31,18,20,21,36,23,28,29,40,18,19,21,31,22,23,27,29,20,22,21,30,28,22,29,29,33,26,26,25,31,21,36,26,33,22,18,17,31,21,37,34,32,31,18,26,29,19,24,32,26,31,16,23,23,24,23,41,28,30,14,23,29,43,30,30,30,30,30,17,23,40,32,24,29,30,31,23,26,33,22,24,35,27,30,16,20,21,24,18,33,25,37,16,24,24,31,20,26,24,33,24,16,16,28,29,22,26,24,16,9,21,6,0,0,9,25,42,29,34,32,32,28,19,23,43,29,29,29,32,32,20,16,27,19,15,21,22,15,11,13,22,20,11,25,22,19,8,22,9,0,0,0,0,0,0,0,0,0,0,0,0]",
  },
]
`;

exports[`#getNormalizedQueueTrack should normalize API response object tracks properly 1`] = `
Object {
  "accounting_code": "",
  "album": "Sae Will We Yet",
  "album_track_only": "",
  "amp": false,
  "artist": "Tony Cuffe",
  "buy_link": "",
  "default_follow": "",
  "description": "",
  "dominant_color": "",
  "download_url": "",
  "duration": 87,
  "featured_text": "",
  "featuring": "",
  "file320": "",
  "follow_download": "",
  "genre": "latin",
  "id": 13896,
  "image": "https://assets.dev.audiomack.com/default-song-image.jpg",
  "image_base": undefined,
  "image_processing": "",
  "images": Array [],
  "is_featured": "",
  "is_soundcloud": false,
  "isrc": "",
  "links": Object {
    "self": "https://devcf.aws.audiomack.com/song/ys234/tail-toddle",
  },
  "live": true,
  "override_buy": "",
  "parentDetails": Object {
    "artist": Object {
      "id": 49,
      "image": "https://assets.dev.audiomack.com/glen-scott/0cb25472d99008357336a185f24c1f29-275-275.jpeg",
      "image_base": undefined,
      "name": "Glen Scott",
      "url_slug": "glen-scott",
    },
    "id": 111,
    "title": "Fire",
    "type": "playlist",
    "url_slug": "fire-2",
  },
  "private": "no",
  "producer": "",
  "released": 1526409009,
  "released_offset": -6930490,
  "soundcloud_follow": "",
  "soundcloud_user": "",
  "soundcloud_user_name": "",
  "status": "complete",
  "stream_only": "yes",
  "streaming_url": "https://songs.dev.audiomack.com/tracks/ys234/tail-toddle.mp3?Expires=1533353899&Signature=clQw3nhIhqMzxIrEGh7uZsVsnPjdVp4j-QMh~RpZ6VxN5GE709c~cTItRF0TJoTlwLbM3JNyOjqcX7nw98ueWAobjR-Ji4kcVWugg8ok-0X3HKjCtohK4BhZyNa-4hfT8b1bzOtH7U71wR~dSTIbjmW5tquiplTcBa0P4DrgFok_&Key-Pair-Id=APKAIKAIRXBA2H7FXITA",
  "streaming_url_timeout": 1533343099,
  "suspension_whitelist": "",
  "time_ago": "2 months ago",
  "title": "Tail Toddle",
  "trackIndex": 1,
  "trend_genres": "",
  "type": "song",
  "ui_color": "",
  "upc": "",
  "updated": 1526328413,
  "uploaded": 1525112992,
  "uploader": Object {
    "bio": "",
    "can_upload": true,
    "created": 1510787773,
    "facebook": "",
    "follow_download": "no",
    "followers_count": 3,
    "following_count": 4,
    "genre": "",
    "hometown": "",
    "id": 828,
    "image": "https://assets.dev.audiomack.com/default-artist-image.jpg",
    "image_banner": "",
    "image_processing": "",
    "instagram": "",
    "label": "",
    "label_owner": false,
    "name": "ys234",
    "status": "active",
    "suspension_whitelist": "",
    "twitter": "",
    "type": "artist",
    "updated": 1510787773,
    "url": "",
    "url_slug": "ys234",
    "verified": "",
    "video_ads": "",
  },
  "url_slug": "tail-toddle",
  "video": "",
  "video_ad": "no",
  "volume_data": "[12,13,14,16,12,14,15,14,15,13,25,36,27,33,29,36,40,30,39,33,34,29,30,32,30,44,40,34,41,39,32,33,30,31,39,40,32,32,33,38,42,34,41,36,35,36,33,28,38,40,40,31,36,36,46,36,37,40,40,35,37,35,38,37,37,32,38,36,44,44,38,41,43,38,39,38,40,41,42,44,37,25,41,29,20,12,2]",
}
`;
